Country,Estimate of firearms in civilian possession,Population 2017,Estimate of firearms per 100 people,Democracy index (EIU),Electoral pluralism index (EIU),Government index (EIU),Political participation index(EIU),Political culture index (EIU),Civil liberties index (EIU),Change in democracy index (EIU),HDI,FreeExistence Index of Worldwide Gun Rights,FreeExistence Index without lax enforcement adjustments
Palestine,56000,4952000,1.1,38.9,33.3,1.4,77.8,43.8,38.2,-5,0.708,#N/A,#N/A
Russia,17620000,143375000,12.3,31.1,21.7,17.9,50,25,41.2,1.7,0.824,3.1,3.1
North Korea,76000,25405000,0.3,10.8,0,25,16.7,12.5,0,0,0,0.5,0.5
"Congo, Dem. Rep.",946000,82243000,1.2,11.3,0,0,16.7,31.3,8.8,-3.6,0.48,1.8,1.5
Central African Republic,94000,5099000,1.8,13.2,12.5,0,11.1,18.8,23.5,-2,0.397,3,3
Syria,1547000,18907000,8.2,14.3,0,0,27.8,43.8,0,0,0.567,3.7,3.7
Chad,151000,14965000,1,16.1,0,0,16.7,37.5,26.5,0,0.398,4.2,4.2
Turkmenistan,23000,5503000,0.4,17.2,0,7.9,22.2,50,5.9,0,0.715,1.5,1.5
Equatorial Guinea,112000,894000,12.5,19.2,0,4.3,33.3,43.8,14.7,0,0.592,--,--
Saudi Arabia,12564000,32743000,53.7,19.3,0,28.6,22.2,31.3,14.7,0,0.854,6.5,6
Tajikistan,37000,8858000,0.4,19.3,0.8,7.9,16.7,62.5,8.8,0,0.668,3.5,3
Yemen,14859000,28120000,52.8,19.5,0,0,38.9,50,8.8,0,0.47,9,9
Uzbekistan,127000,30691000,0.4,20.1,0.8,18.6,22.2,50,8.8,0,0.72,1,0
Libya,851000,6409000,13.3,20.2,0,0,27.8,43.8,29.4,-1.7,0.724,0,0
Lao,215000,7038000,3,21.4,0,28.6,16.7,50,11.8,-2.3,0.613,2.5,2.5
Burundi,238000,11936000,2,21.5,0,0.7,33.3,50,23.5,-1.8,0.433,4.7,4.7
China,49735000,1388233000,3.6,22.6,0,42.9,33.3,25,11.8,-10.6,0.761,0.5,0.5
Eritrea,23000,5482000,0.4,23.7,0,21.4,16.7,68.8,11.8,0,0.459,0.8,0
Iran,5890000,80946000,7.3,23.8,0,28.6,44.4,31.3,14.7,-0.7,0.783,3.6,3.6
Belarus,581000,9459000,6.1,24.8,9.2,20,27.8,43.8,23.5,-6.5,0.823,2.5,2.5
Bahrain,181000,1419000,12.8,25.5,8.3,27.1,27.8,43.8,20.6,-1.6,0.852,3,3
Guinea-Bissau,29000,1933000,1.5,26.3,49.2,0,27.8,31.3,23.5,6.5,0.48,--,--
Sudan,2768000,42166000,6.6,27,0,17.9,55.6,50,11.8,5.5,0.51,0.5,0.5
Azerbaijan,362000,9974000,3.6,27.5,5,32.1,27.8,37.5,35.3,1,0.756,3,3
United Arab Emirates,1569000,9398000,16.7,27.6,0,39.3,22.2,50,26.5,0,0.89,3.8,3
Djibouti,28000,911000,3.1,27.7,4.2,12.9,38.9,56.3,26.5,-1,0.524,4.5,4.5
Cuba,234000,11390000,2.1,28.4,0,35.7,33.3,43.8,29.4,-1.6,0.783,1.5,1.5
Afghanistan,4270000,34169000,12.5,28.5,34.2,6.4,38.9,25,38.2,-1.2,0.511,4.4,3.6
Cameroon,510000,24514000,2.1,28.5,16.7,25,33.3,43.8,23.5,-4.3,0.563,3,3
Venezuela,5895000,31926000,18.5,28.8,0,17.9,50,43.8,32.4,0,0.711,1.1,0.3
Kazakhstan,504000,18064000,2.8,29.4,5,21.4,44.4,43.8,32.4,0,0.825,3,3
Egypt,3931000,95215000,4.1,30.6,26.7,32.1,33.3,37.5,23.5,-3,0.707,4.2,4.2
Oman,792000,4741000,16.7,30.6,0.8,39.3,27.8,43.8,41.2,0.2,0.813,4.5,4.5
Vietnam,1562000,95415000,1.6,30.8,0,32.1,38.9,56.3,26.5,0,0.704,0.5,0
"Congo, Rep.",119000,4866000,2.4,31.1,21.7,25,38.9,37.5,32.4,-2,0,4.5,4.2
Guinea,130000,13291000,1,31.4,35,4.3,44.4,43.8,29.4,0,0.477,3.3,3
Swaziland,64000,1320000,4.8,31.4,9.2,28.6,27.8,56.3,35.3,1.1,0.611,3,3
Comoros,12000,826000,1.5,31.5,20.8,22.1,38.9,37.5,38.2,-5.6,0.554,3,3
Rwanda,66000,12160000,0.5,31.6,14.2,42.9,27.8,43.8,29.4,-1.9,0.543,6,6
Zimbabwe,455000,16338000,2.8,31.6,0,25,44.4,56.3,32.4,0,0.571,1,1
Qatar,390000,2338000,16.7,31.9,0,42.9,22.2,56.3,38.2,0,0.848,3,3
Niger,117000,21564000,0.5,32.9,29.2,11.4,33.3,43.8,47.1,-4.7,0.394,4,3
Ethiopia,377000,104345000,0.4,34.4,4.2,35.7,55.6,50,26.5,0.9,0.485,3.8,3.5
Cambodia,717000,16076000,4.5,35.3,8.3,46.4,33.3,56.3,32.4,-0.6,0.594,2,2
Myanmar,877000,54836000,1.6,35.5,30.8,39.3,27.8,56.3,23.5,-2.8,0.583,2.5,2.5
Nicaragua,323000,6218000,5.2,35.5,12.5,28.6,38.9,56.3,41.2,-0.8,0.66,4.8,4.8
Gabon,61000,1801000,3.4,36.1,25.8,22.1,44.4,50,38.2,0,0.703,3,3
Mozambique,1337000,29538000,4.5,36.5,25.8,21.4,50,50,35.3,-2,0.459,3.2,3.2
Angola,2982000,26656000,11.2,37.2,22.5,28.6,55.6,50,29.4,1,0.581,3.3,3
Iraq,7588000,38654000,19.6,37.4,52.5,0,66.7,50,17.6,-3.2,0.674,5.8,4.7
Mauritania,120000,4266000,2.8,39.2,35,35.7,50,31.3,44.1,1,0.546,4.2,3.7
Jordan,1473000,7877000,18.7,39.3,35.8,42.9,38.9,43.8,35.3,0,0.729,3.6,3.6
Kuwait,685000,4100000,16.7,39.3,35.8,42.9,38.9,43.8,35.3,0.8,0.806,0.75,0.25
Algeria,877000,41064000,2.1,40.1,30.8,28.6,50,50,41.2,5.1,0.748,2.5,2.5
Burkina Faso,175000,19173000,0.9,40.4,39.2,27.1,44.4,50,41.2,-7.1,0.452,3.6,3.6
Cote d'Ivoire,1049000,23816000,4.4,40.5,43.3,28.6,33.3,56.3,41.2,-1,0.538,3.3,3
Turkey,13249000,80418000,16.5,40.9,30.8,50,50,50,23.5,-2.8,0.82,5.7,5.2
Nigeria,6154000,191836000,3.2,41.2,51.7,39.3,33.3,37.5,44.1,-3.2,0.539,3.6,3.6
Pakistan,43917000,196744000,22.3,42.5,60.8,57.1,22.2,25,47.1,0.8,0.557,5.6,5.3
Gambia,137000,2120000,6.5,43.3,40,42.9,33.3,56.3,44.1,0.2,0.496,3.5,3
Lebanon,1927000,6039000,31.9,43.6,39.2,15,66.7,50,47.1,-2.7,0.744,4.5,4
Haiti,291000,10983000,2.6,45.7,47.5,20.7,38.9,62.5,58.8,-3.4,0.51,3.5,3
Bolivia,218000,11053000,2,48.4,47.5,39.3,50,37.5,67.6,-8.6,0.718,2.6,2.6
Bosnia and Herzegovina,1185000,3793000,31.2,48.6,61.7,29.3,55.6,37.5,58.8,-1.2,0.78,5,5
Sierra Leone,35000,6733000,0.5,48.6,65.8,28.6,33.3,62.5,52.9,2,0.452,2,2
Kyrgyz Republic,171000,6125000,2.8,48.9,60.8,29.3,66.7,37.5,50,-2.2,0.697,2,2
Mali,206000,18690000,1.1,49.2,64.2,30.7,38.9,56.3,55.9,-4.9,0.434,6,6
Uganda,331000,41653000,0.8,50.2,43.3,35.7,44.4,68.8,58.8,-1.8,0.544,0,0
Benin,33000,11459000,0.3,50.9,46.7,57.1,44.4,56.3,50,-6.5,0.545,3,3
Zambia,158000,17238000,0.9,50.9,47.5,29.3,44.4,68.8,64.7,0,0.584,2.5,2.5
Morocco,1690000,35241000,4.8,51,52.5,46.4,55.6,56.3,44.1,1.1,0.686,3,3
Tanzania,427000,56878000,0.8,51.6,57.5,50,50,56.3,44.1,-2.5,0.529,3.7,3.7
Kenya,750000,48467000,1.5,51.8,35,57.1,66.7,56.3,44.1,0.7,0.601,4.8,4.3
Guatemala,2062000,17005000,12.1,52.6,69.2,46.4,38.9,43.8,64.7,-3.4,0.663,4.8,4.8
Nepal,444000,29187000,1.5,52.8,48.3,53.6,50,56.3,55.9,1,0.602,4,3
Bhutan,6000,793000,0.8,53,87.5,67.9,27.8,43.8,38.2,0,0.654,3,3
Georgia,402000,3973000,10.1,54.2,78.3,32.1,61.1,43.8,55.9,-0.8,0.812,3,3
Honduras,1171000,8305000,14.1,54.2,78.3,42.9,44.4,43.8,61.8,-2.1,0.634,3,3
Liberia,97000,4730000,2.1,54.5,74.2,30.7,55.6,56.3,55.9,1,0.48,1.3,0
Malawi,47000,18299000,0.3,55,60.8,42.9,50,62.5,58.8,0.1,0.483,3.5,3
Armenia,186000,3032000,6.1,55.4,75,53.6,61.1,31.3,55.9,7.5,0.776,2.75,2.75
Madagascar,168000,25613000,0.7,56.4,79.2,35.7,61.1,56.3,50,4.2,0.528,6.5,6
Montenegro,245000,626000,39.1,56.5,56.7,53.6,61.1,43.8,67.6,-0.9,0.829,4.7,4.2
Moldova,121000,4055000,3,57.5,65.8,46.4,61.1,43.8,70.6,-1,0.75,4.3,4.3
Senegal,323000,16054000,2,58.1,60.8,60.7,44.4,62.5,61.8,-3.4,0.512,5.7,5.7
Fiji,5000,903000,0.5,58.5,65.8,53.6,61.1,56.3,55.9,0,0.743,3.5,3
Bangladesh,659000,164828000,0.4,58.8,78.3,60.7,61.1,43.8,50,3.1,0.632,2,2
Albania,350000,2911000,12,58.9,70,53.6,44.4,50,76.5,-0.9,0.795,3.5,3
Ukraine,4396000,44405000,9.9,59,74.2,27.1,66.7,62.5,64.7,0,0.779,2.6,2.6
"Hong Kong, China",265000,7402000,3.6,60.2,35.8,43.6,61.1,75,85.3,-1.3,0.949,1.5,1.5
Singapore,20000,5785000,0.3,60.2,39.2,78.6,50,62.5,70.6,-3.6,0.938,1.5,1.5
Papua New Guinea,79000,7934000,1,60.3,69.2,60.7,38.9,56.3,76.5,0,0.555,5.2,4.7
Mexico,16809000,130223000,12.9,60.9,78.3,60.7,72.2,31.3,61.8,-1,0.779,3.9,3.9
El Salvador,737000,6167000,12,61.5,91.7,46.4,61.1,37.5,70.6,1.9,0.673,3.3,3
Guyana,122000,774000,15.8,61.5,69.2,53.6,61.1,50,73.5,-5.2,0.682,6,6
Paraguay,1140000,6812000,16.7,62.4,87.5,57.1,50,43.8,73.5,0,0.728,5.4,5.4
Sri Lanka,494000,20905000,2.4,62.7,70,60.7,55.6,62.5,64.7,0.8,0.782,3,3
Thailand,10342000,68298000,15.1,63.2,74.2,53.6,61.1,62.5,64.7,16.9,0.777,4.2,4.2
Ecuador,402000,16626000,2.4,63.3,87.5,53.6,61.1,43.8,70.6,0.6,0.759,4.2,4.2
Serbia,2719000,6946000,39.1,64.1,82.5,53.6,61.1,50,73.5,0,0.806,3.7,3.2
Namibia,396000,2569000,15.4,64.3,65.8,53.6,66.7,56.3,79.4,1.8,0.646,4.25,4.25
Indonesia,82000,263510000,0.03,64.8,79.2,71.4,61.1,56.3,55.9,0.9,0.718,2.1,2.1
Romania,506000,19238000,2.6,64.9,91.7,57.1,55.6,43.8,76.5,1.1,0.828,3.4,3.4
Mongolia,242000,3052000,7.9,65,91.7,57.1,55.6,50,70.6,0,0.737,4,4
Dominican Republic,795000,10767000,7.4,65.4,91.7,53.6,61.1,50,70.6,0,0.756,4.5,4.5
Lesotho,105000,2185000,4.8,65.4,91.7,45,66.7,56.3,67.6,-1,0.527,2.5,2.5
Croatia,576000,4210000,13.7,65.7,91.7,60.7,55.6,50,70.6,0,0.851,2.6,2.6
Peru,633000,32166000,2,66,91.7,50,55.6,56.3,76.5,0,0.777,6,6
Poland,968000,38564000,2.5,66.2,91.7,60.7,61.1,43.8,73.5,-0.5,0.88,3.2,3.2
Ghana,2280000,28657000,8,66.3,83.3,57.1,66.7,62.5,61.8,0,0.611,3,3
Hungary,1023000,9788000,10.5,66.3,87.5,60.7,50,62.5,70.6,0,0.854,2.6,2.6
Philippines,3776000,103797000,3.6,66.4,91.7,53.6,72.2,43.8,70.6,-0.7,0.718,4.8,4.8
Tunisia,123000,11495000,1.1,67.2,91.7,57.1,72.2,56.3,58.8,3.1,0.74,4.5,4.5
Brazil,17510000,211243000,8.3,68.6,95.8,53.6,61.1,50,82.4,-1.1,0.765,3.5,3.2
India,71101000,1342513000,5.3,69,86.7,67.9,66.7,56.3,67.6,-3.3,0.645,3.7,3.7
Jamaica,246000,2813000,8.8,69.6,87.5,71.4,44.4,62.5,82.4,-0.6,0.734,4.2,4.2
Suriname,88000,552000,15.9,69.8,91.7,64.3,66.7,50,76.5,0,0.738,3,3
Argentina,3256000,44272000,7.4,70.2,91.7,53.6,61.1,62.5,82.4,0,0.845,2.5,2.5
Bulgaria,590000,7045000,8.4,70.3,91.7,64.3,72.2,43.8,79.4,0,0.816,7,7
Panama,436000,4051000,10.8,70.5,95.8,60.7,66.7,50,79.4,0,0.815,4.97,4.97
Colombia,4971000,49068000,10.1,71.3,91.7,67.9,55.6,56.3,85.3,1.7,0.767,4.2,4.2
Malaysia,217000,31164000,0.7,71.6,91.7,78.6,66.7,62.5,58.8,2.8,0.81,2,2
Trinidad and Tobago,43000,1369000,3.2,71.6,95.8,71.4,61.1,56.3,73.5,0,0.796,3,3
Slovak Republic,355000,5432000,6.5,71.7,95.8,71.4,55.6,56.3,79.4,0.7,0.86,3.8,3.8
Timor-Leste,58000,7692000,0.8,71.9,95.8,62.9,55.6,68.8,76.5,0,0.606,8,8
South Africa,5351000,55436000,9.7,72.4,74.2,75,83.3,50,79.4,0,0.709,6,6
Greece,1920000,10893000,17.6,74.3,95.8,48.6,66.7,75,85.3,1.4,0.888,4.8,4.3
Latvia,205000,1945000,10.5,74.9,95.8,60.7,61.1,68.8,88.2,1.1,0.866,4.5,4.5
Lithuania,385000,2831000,13.6,75,95.8,64.3,61.1,62.5,91.2,0,0.882,5.2,5.2
Slovenia,324000,2071000,15.6,75,95.8,67.9,66.7,62.5,82.4,0,0.917,3.7,3.7
Italy,8609000,59798000,14.4,75.2,95.8,60.7,77.8,62.5,79.4,-1.9,0.892,3.6,3.6
Cyprus,285000,839000,34,75.9,91.7,64.3,66.7,68.8,88.2,0,0.887,3.6,3.1
Belgium,1451000,11444000,12.7,76.4,95.8,82.1,50,68.8,85.3,-1.4,0.931,3.1,3.1
Czech Republic,1323000,10555000,12.5,76.9,95.8,67.9,66.7,68.8,85.3,0,0.9,6.4,6.4
Taiwan,10000,23405000,0.1,77.3,95.8,82.1,61.1,56.3,91.2,0,0,1,1
Botswana,97000,2344000,4.1,78.1,91.7,71.4,61.1,75,91.2,0,0.735,2.5,2.5
Israel,557000,8323000,6.7,78.6,91.7,78.6,88.9,75,58.8,0.7,0.919,7,7
Estonia,65000,1306000,5,79,95.8,78.6,66.7,68.8,85.3,-0.7,0.892,4.8,4.8
Malta,119000,421000,28.3,79.5,91.7,75,61.1,81.3,88.2,-2.6,0.895,4.25,4.25
United States,393347000,326474000,120.5,79.6,91.7,71.4,77.8,75,82.4,0,0.926,8,8
Japan,377000,126045000,0.3,79.9,87.5,82.1,66.7,75,88.2,0,0.919,1.5,1.5
South Korea,79000,50705000,0.2,80,91.7,78.6,72.2,75,82.4,0,0.916,2,2
Portugal,2186000,10265000,21.3,80.3,95.8,78.6,61.1,75,91.2,1.9,0.864,3,3
Chile,2220000,18313000,12.1,80.8,95.8,85.7,50,81.3,91.2,1.1,0.851,4.7,4.2
France,12732000,64939000,19.6,81.2,95.8,78.6,77.8,68.8,85.3,3.2,0.901,4,4
Costa Rica,493000,4906000,10,81.3,95.8,75,66.7,75,94.1,0.6,0.81,3.6,3.6
Mauritius,106000,1281000,8.3,82.2,91.7,82.1,55.6,87.5,94.1,0,0.804,3,3
Austria,2577000,8592000,30,82.9,95.8,78.6,83.3,68.8,88.2,0,0.922,2.5,2.5
Spain,3464000,46070000,7.5,82.9,95.8,71.4,77.8,81.3,88.2,2.1,0.904,2.6,2.6
Uruguay,1198000,3457000,34.7,83.8,100,85.7,61.1,75,97.1,0,0.817,4.2,4.2
United Kingdom,7975000,66186000,8.3,85.2,95.8,75,88.9,75,91.2,0,0.932,1.5,1.5
Germany,15822000,80636000,19.6,86.8,95.8,85.7,83.3,75,94.1,0,0.947,3.2,3.2
Luxembourg,110000,584000,18.9,88.1,100,89.3,66.7,87.5,97.1,0,0.916,2.25,2.25
Netherlands,442000,17033000,2.6,90.1,95.8,92.9,83.3,87.5,91.2,1.2,0.944,2.5,2.5
Switzerland,2332000,8454000,27.6,90.3,95.8,92.9,77.8,93.8,91.2,0,0.955,5.95,5.95
Australia,3573000,24642000,14.5,90.9,100,89.3,77.8,87.5,100,0,0.944,2,2
Canada,12708000,36626000,34.7,92.2,95.8,96.4,77.8,93.8,97.1,0.7,0.929,3,3
Denmark,567000,5712000,9.9,92.2,100,92.9,83.3,93.8,91.2,0,0.94,2.5,2.5
Ireland,342000,4749000,7.2,92.4,100,78.6,83.3,100,100,0.9,0.955,3.2,3.2
Finland,1793000,5541000,32.4,92.5,100,89.3,88.9,87.5,97.1,1.1,0.938,4,4
New Zealand,1212000,4605000,26.3,92.6,100,92.9,88.9,81.3,100,0,0.931,2,2
Sweden,2296000,9921000,23.1,93.9,95.8,96.4,83.3,100,94.1,0,0.945,3.2,3.2
Iceland,106000,334000,31.7,95.8,100,92.9,88.9,100,97.1,0,0.949,3,3
Norway,1537000,5331000,28.8,98.7,100,96.4,100,100,97.1,0,0.957,3,3
